gitau_james/decoder_2by4/timing_diagram.vcd
$date
     Nov 08, 2016       15:04:37
$end

$version
 SystemC 2.3.1-Accellera --- Oct 24 2016 14:52:48
$end

$timescale
     1 ns
$end

$scope module SystemC $end
$var wire    1  aaaaa  binary_input1       $end
$var wire    1  aaaab  binary_input2       $end
$var wire    1  aaaac  input_is_zero       $end
$var wire    1  aaaad  input_is_one       $end
$var wire    1  aaaae  input_is_two       $end
$var wire    1  aaaaf  input_is_three       $end
$upscope $end
$enddefinitions  $end

$comment
All initial values are dumped below at time 0 sec = 0 timescale units.
$end

$dumpvars
0aaaaa
0aaaab
1aaaac
0aaaad
0aaaae
0aaaaf
$end

#5
1aaaab
0aaaac
1aaaad

#10
1aaaaa
0aaaab
0aaaad
1aaaae

#15
1aaaab
0aaaae
1aaaaf

#20
0aaaaa
0aaaab
1aaaac
0aaaaf

#25
1aaaab
0aaaac
1aaaad

#30
1aaaaa
0aaaab
0aaaad
1aaaae

#35
1aaaab
0aaaae
1aaaaf

#40
0aaaaa
0aaaab
1aaaac
0aaaaf

#45
1aaaab
0aaaac
1aaaad

